0.218041
0.050789
0.034541
0.182413
0.033029
0.028089
0.042852
0.028932
0.034445
0.11714
0.04624
0.005899
0.064866
0.057056
0.048812
0.023303
0.049338
0.056322
0.03955
0.155358
0.024148
0.021614
0.046533
0.060814
0.049703
0.050866
0.040885
0.345452
0.051753
0.032246
0.073179
0.035401
0.041201
0.044324
0.126566
0.177507
0.030254
0.190064
0.025729
0.044151
0.018358
0.029728
0.033119
0.032055
0.032081
0.02757
0.040463
0.016819
0.033688
0.065263
0.119666
0.037361
0.032092
0.021909
0.026378
0.071463
0.096861
0.037643
0.100061
0.096449
0.019479
0.078621
0.129723
0.036487
0.027319
0.034914
0.129511
0.026054
0.037186
0.027012
0.061326
0.030849
0.011102
0.052903
0.030504
0.021107
0.027396
0.084361
0.12556
0.023347
0.078756
0.036214
0.025115
0.02409
0.275298
0.096508
0.017334
-0.008289
0.035655
0.300153
0.071982
0.035185
0.035253
0.02585
0.03072
0.051581
0.078674
0.172372
0.025266
0.031144
0.11562
0.14936
0.05785
0.046903
0.030714
0.037945
0.024615
0.055548
0.125382
0.030805
0.032269
0.165401
0.065411
0.103401
0.028389
0.028158
0.132116
0.036455
0.053851
0.033526
0.092162
0.112171
0.078968
0.055204
0.053567
0.072739
0.036431
0.029861
0.037636
0.058518
0.181267
0.028038
0.040858
0.177552
0.020179
0.088758
0.105815
0.016959
0.212926
0.037701
0.037267
0.060552
0.034974
0.035355
0.219498
0.01746
0.024051
0.021457
0.036109
0.287187
0.326014
0.059649
0.071077
0.326891
0.037187
0.077506
0.028959
0.07667
0.039694
0.035734
0.090932
0.024314
0.118568
0.051246
0.026654
0.435636
0.100341
0.027874
0.052885
0.08614
0.04082
0.028567
0.044546
0.130652
0.047908
0.024495
0.031951
0.062101
0.040794
0.135686
0.06181
0.076467
0.166291
0.44798
0.06253
0.028736
0.113566
0.056285
0.020358
0.043514
0.014962
0.079192
0.056452
0.032904
0.097536
0.039656
0.192002
0.040671
0.088451
0.017943
0.098658
0.018344
0.06429
0.048537
0.025619
0.051496
0.048497
0.133379
0.042992
0.307889
0.0367
0.034613
0.021708
0.057899
0.224524
0.195982
0.045104
0.037963
0.028693
0.056949
0.025954
-0.017713
0.057557
0.053397
0.077234
0.140514
0.233752
0.073411
0.026039
0.025376
0.136768
0.031092
0.051141
0.057642
0.025115
0.242333
0.047094
0.030252
0.054025
0.040374
0.08717
0.135514
0.106311
0.044306
0.042413
0.084239
0.126475
0.024369
0.394665
0.068802
0.044374
0.021862
0.038606
0.028499
0.035819
0.139777
0.032805
0.029241
0.081911
0.02826
0.041798
0.026249
0.007893
0.075912
0.054375
0.03711
0.039212
0.037062
0.021444
0.030858
0.058244
0.018525
0.050312
0.034327
0.037919
0.029349
0.071102
0.046451
0.026863
0.058628
0.068673
0.16488
0.030034
0.212286
0.054082
0.032637
0.039201
0.030685
0.049633
0.049157
0.170651
0.070145
0.055829
0.033006
0.128493
0.052583
0.289344
0.032388
0.056682
0.287402
0.070962
0.043088
0.052033
0.028656
0.009547
0.035682
0.018793
0.031232
0.047874
0.02822
0.039092
0.068806
0.0831
0.052255
0.044215
0.044801
0.004866
0.052075
0.033441
0.131976
0.038456
0.02536
0.033403
0.028808
0.160665
0.060058
0.03494
0.029633
0.025822
0.025627
0.098717
0.027806
0.178764
0.043745
0.026929
0.051669
0.020691
0.021495
0.023681
0.130943
0.02012
0.045437
0.316683
0.246079
0.02407
0.039673
0.033948
0.041127
0.022584
0.079638
0.085104
0.271272
0.071665
0.075946
0.066075
0.202267
0.034169
0.026218
0.017154
0.038551
0.018853
0.031769
0.35106
0.019321
0.016232
0.050561
0.082804
0.024072
-0.025788
0.030717
0.122667
0.071058
0.097622
0.043856
0.032952
0.037343
0.049204
0.015172
0.020966
0.04353
0.07012
0.061779
0.038644
0.061229
0.021137
0.197884
0.058763
0.187892
0.053708
0.031354
0.033336
0.028991
0.013708
0.079219
0.066761
0.061947
0.068751
0.038383
0.042295
0.061581
0.060916
0.052036
0.085207
0.020004
-0.014817
0.028735
0.241638
0.045896
0.04618
0.048759
0.052439
0.136758
0.021199
0.028307
0.075167
0.029218
0.111533
0.051132
0.03246
0.259942
0.027341
0.019185
0.096214
0.375837
0.041774
0.031451
0.097692
0.046638
0.099714
0.060626
0.141218
0.042334
0.108907
0.070386
0.188527
0.061085
0.020124
0.145509
0.037029
0.057731
0.295198
0.028428
0.027661
0.211601
0.070741
0.016642
0.033371
0.066421
0.033269
0.027662
0.219208
0.051507
0.025409
0.04937
0.027505
0.071013
0.499084
-0.004713
0.033126
-0.010591
0.03276
0.037587
0.04407
0.135692
0.032551
0.099397
0.018286
0.060141
0.03167
0.056077
0.036967
0.049351
0.023227
0.005839
0.107832
0.036442
0.004407
0.021277
0.038492
0.093715
0.041918
0.050162
0.042017
0.098496
0.232017
0.172463
0.28894
0.036016
0.072398
0.023636
0.064696
0.061565
0.108893
0.025196
0.092436
0.048872
0.077744
0.029575
0.08062
0.024027
0.097301
0.030005
0.030664
0.025753
0.120513
0.094461
0.154339
0.404171
0.191851
0.026645
0.071068
0.068983
0.035928
0.122234
0.008954
0.047501
0.032642
0.071196
0.056766
0.052311
0.087259
0.042685
0.146422
0.050042
0.028671
0.034267
0.035452
0.027816
0.039616
-0.011829
0.025385
0.025685
0.891468
0.368388
0.029755
0.034549
0.03335
0.098529
0.032863
0.030334
0.082077
0.0762
0.10665
0.030138
0.025518
0.097885
0.06309
0.053128
0.169782
0.012053
0.012276
0.055526
0.070269
0.0525
0.025494
0.03536
0.053304
0.008823
0.14828
-0.107622
0.030623
0.13612
0.032863
0.043141
0.030434
0.06047
0.068204
0.129544
0.071191
0.07156
-0.090161
0.118011
0.179077
0.03493
0.034999
0.026046
0.038298
0.020612
-0.009943
0.044917
0.026806
0.232908
0.028581
0.048292
-0.009106
0.041877
0.094743
0.027961
0.166833
0.03432
0.061713
0.049931
0.029767
0.052589
0.106366
0.031307
0.180379
0.038892
0.035653
0.030519
0.101149
0.100902
0.053302
0.052079
0.037294
0.063266
0.053857
0.063715
0.213414
0.205105
0.027226
0.033328
0.028964
0.062147
0.03226
0.045108
0.044623
0.031404
0.033169
0.122354
0.054131
0.022133
0.202666
0.097341
-0.017691
0.030163
0.011537
0.078991
0.04507
0.220867
0.073104
0.084577
0.103831
0.047883
0.021554
-0.010225
0.038276
0.027802
0.028545
0.036992
0.20946
0.042792
0.16763
0.142686
0.040184
0.053657
0.026215
0.323611
0.040558
0.069008
0.032801
0.019554
0.042831
0.03569
0.035439
0.046383
0.042979
0.101065
0.056331
0.058188
0.100006
0.032133
0.017133
0.072944
0.178397
0.071254
0.316594
0.028852
0.217586
0.031487
0.289453
0.04859
0.062586
-0.000803
0.064338
0.036317
0.031267
0.055519
0.153719
0.033213
0.028394
-0.021936
0.04404
0.012292
0.037419
0.056813
0.051773
0.02841
0.090279
0.034249
0.017953
0.028837
0.004516
0.033739
0.072546
-0.020508
0.043328
0.024507
0.065414
0.018121
0.04312
-0.017718
0.381002
0.06801
0.066216
0.039239
0.035918
0.016384
0.140751
0.029833
0.202992
0.10729
0.199705
0.039504
0.084588
0.104013
0.025629
0.024139
0.074746
0.372914
0.027375
-0.005609
0.039795
0.149477
0.066042
0.060142
0.144627
0.093557
0.026416
0.237298
0.090433
0.038728
0.161195
0.037347
0.188019
0.01602
0.030363
0.043991
0.046409
0.090861
0.09478
0.062465
0.073367
0.035838
0.042994
0.033134
0.02574
0.03071
0.029554
-0.000875
0.064285
0.072838
0.095812
0.155798
0.092354
0.221122
0.048311
0.089709
0.037441
0.102433
0.037484
0.021365
0.059897
0.036446
0.030513
0.086094
0.034427
0.151815
0.018081
0.029931
0.071303
0.044585
0.031817
0.06348
0.04976
0.045829
0.035432
-0.02283
0.022493
0.051773
-0.037139
0.036468
0.01634
0.052422
0.028111
0.063263
0.403789
0.027696
0.029539
0.190142
0.031673
0.043121
0.092583
0.116033
0.110921
0.132975
0.024007
0.029226
0.184051
0.08887
0.027759
0.07733
0.092098
0.090869
0.016829
0.050713
0.027723
0.015941
0.033849
0.117343
0.029082
0.107598
0.12794
0.009426
0.044018
0.039257
0.098053
0.055686
0.051549
0.165915
0.102577
0.052053
0.059645
0.020019
0.03529
0.033142
0.009225
0.024872
0.557742
0.29276
0.039022
0.071389
0.030314
0.084233
0.124664
0.028502
0.026746
0.069306
0.045603
-0.005793
0.046649
0.041956
0.06186
0.074454
0.087884
0.039211
0.029547
0.095418
0.106387
0.079557
0.068031
0.044421
0.031252
0.032221
0.129573
0.016743
0.234859
0.024212
0.236283
0.077649
0.039017
0.092266
0.066446
0.089545
0.04406
0.127301
0.07889
0.130394
0.04279
0.026032
0.030997
0.112757
0.039388
0.14647
0.165271
0.056844
0.071632
0.090484
0.055774
0.031485
0.101835
0.008101
0.068915
0.091344
0.003634
0.066592
0.146066
0.060566
0.323901
0.049161
0.098721
0.371425
0.15556
0.066689
0.027873
0.056583
0.026056
0.0136
0.025736
0.065948
0.023431
0.030152
0.043434
0.060772
-0.003388
0.087952
0.046855
0.034082
0.24275
0.011884
0.092103
0.040301
0.039909
0.054656
0.34687
0.054968
0.024222
0.119236
0.018248
0.040273
0.22423
0.019893
0.051351
0.001669
0.021579
0.269672
0.086006
0.030621
0.158703
0.029969
0.029217
0.032544
0.037792
0.030398
0.054098
0.081495
0.115789
0.050687
0.139398
0.027142
0.337284
0.077551
0.110888
0.219441
0.090491
0.033928
0.073093
0.039105
0.029261
0.02737
0.471639
0.066063
0.0238
0.04175
0.036023
-0.0191
0.165953
0.047754
0.058465
0.031378
0.036312
0.043791
0.136097
0.036793
0.119592
0.130335
0.028568
0.004833
0.040896
0.093806
0.045301
0.110944
-0.011922
0.037229
0.01087
0.030288
0.201081
0.009893
0.051362
0.0247
0.02088
0.027151
0.16835
0.040331
0.022402
0.073278
0.12431
0.028191
0.024727
0.060842
0.016733
0.116243
0.045794
0.03399
0.029517
0.032356
0.035099
0.026807
0.039426
0.058566
